{
  "items": [
    {
      "label": "Parlement",
      "options": [
        "Federaal",
        "Brussel",
        "Vlaanderen",
        "Wallonia"
      ]
    },
    {
      "label": "Kieskring",
      "options": [
        "Antwerpen",
        "Brussel",
        "Oost-Vlaanderen",
        "West-Vlaanderen"
      ]
    },
    {
      "label": "Partij",
      "options": [
        "CD&V",
        "DéFi",
        "Ecolo",
        "Groen",
        "NVA",
        "PvDA"
      ]
    }
  ]
}
